{
  "pardis_b2b_mode": "production",
  "pardis_b2c_mode": "test",
  "imi_mode": "production",
  "irancell_mode": "production",
  "rightel_mode": "test",
  "wrong_shortcode_msg": "سرویس در دسترس نمی باشد",
  "irancell_sdp_mo_port": 3001,
  "irancell_sdp_notify_port": 3002,
  "irancell_sdp_delivery_port": 3003,
  "rightel_mo_port": 4001,
  "rightel_notify_port": 4002,
  "rightel_delivery_port": 4003,
  "imi_mo_port": 8090,
  "imi_notify_port": 5002,
  "imi_delivery_port": 5003,
  "imi_ws_port": 5005,
  "irancell_eb_mo_port": 6001,
  "irancell_eb_notify_port": 6002,
  "irancell_eb_delivery_port": 6003,
  "pardis_b2c_mo_port": 7001,
  "pardis_b2c_notify_port": 7002,
  "pardis_b2c_delivery_port": 7003,
  "pardis_b2b_mo_port": 8001,
  "pardis_b2b_notify_port": 8002,
  "pardis_b2b_delivery_port": 8003,
  "pardis_kish_port": 1367,
  "pardis_kish_mo_port": 2001,
  "pardis_kish_notify_port": 2002,
  "pardis_kish_delivery_port": 2003,
  "ussd_port": 2000,
  "golestan_port": 5004,
  "bulk_skip": 10000,
  "dbs": {
    "mongo_mo": "mongodb://172.18.0.1:27057/mo",
    "mongo_charge": "mongodb://172.18.0.1:27057/charge",
    "mongo_mt": "mongodb://172.18.0.1:27057/mt",
    "mongo_subs": "mongodb://172.18.0.1:27057/subs",
    "mongo_panel": "mongodb://172.18.0.1:27057/panel",
    "mongo_subs_history": "mongodb://172.18.0.1:27057/subs_history",
    "mongo_sends": "mongodb://172.18.0.1:27057/sends",
    "mongo_notify": "mongodb://172.18.0.1:27057/notifications",
    "mongo_pardis_kish_notify": "mongodb://172.18.0.1:27057/pardis_kish_notifications",
    "mongo_pardis_kish_sub": "mongodb://172.18.0.1:27057/pardis_kish_sub",
    "mongo_pardis_kish_charge": "mongodb://172.18.0.1:27057/pardis_kish_charge",
    "mongo_marvel": "mongodb://172.18.0.1:27057/",
    "mongo_ussd": "mongodb://172.18.0.1:27058/",
    "avval_market": {
      "market_bill": {
        "host": "79.175.147.243",
        "user": "root",
        "password": "!@#m@rket#@!",
        "port": 6011,
        "database": "market_bill"
      }
    }
  },
  "tps": {
    "rightel": 10,
    "irancell": 10,
    "imi": 100,
    "pardis_b2b": 10,
    "pardis_avval_kish": 50
  },
  "ips": {
    "rightel": "10.200.41.60",
    "irancell": "92.42.55.180",
    "imi": "172.17.251.20"
  },
  "ports": {
    "rightel": 8310,
    "irancell": 8310,
    "imi": 8090,
    "ticket_get_credit": 85,
    "ticket_get_ticket": 86,
    "get_user_status_in_service": 84,
    "get_user_general_status": 83
  },
  "paths": {
    "rightel": "/SendSmsService/services/SendSms",
    "irancell": "/SendSmsService/services/SendSms",
    "irancell_charge": "/AmountChargingService/services/AmountCharging",
    "imi": "/parlayxsmsgw/services/SendSmsService?wsdl"
  },
  "methods": {
    "rightel": "POST",
    "irancell": "POST",
    "imi": "POST"
  },
  "urls": {
    "pardis_b2b_mt": "http://10.20.37.11:80/websrv/services/SMS?wsdl",
    "imi_mt": "http://172.17.251.20:8090/parlayxsmsgw/services/SendSmsService?wsdl",
    "imi_delivery": "http://79.175.139.180:5003/imi_delivery",
    "pardis_kish_mt": "http://10.20.22.18:1090/mt.asmx?wsdl",
    "rabbitmq": "amqp://localhost"
  },
  "priorities": {
    "high": 3,
    "medium": 2,
    "low": 1
  },
  "trustedIps": {
    "webService": [
      "127.0.0.1",
      "79.175.147.243",
      "84.241.34.100"
    ]
  }
}